Pacman died! Score: -258
Pacman died! Score: 281
Pacman emerges victorious! Score: 1105
Pacman died! Score: -111
Pacman died! Score: -27
Pacman died! Score: 190
Pacman died! Score: -75
Pacman emerges victorious! Score: 1204
Pacman died! Score: 615
Pacman died! Score: -413
Average Score: 251.1
Scores:        -258.0, 281.0, 1105.0, -111.0, -27.0, 190.0, -75.0, 1204.0, 615.0, -413.0
Win Rate:      2/10 (0.20)
Record:        Loss, Loss, Win, Loss, Loss, Loss, Loss, Win, Loss, Loss
